0.0 0.0
0.17 0.59
0.34 1.03
0.51 1.25
0.68 1.2
0.85 0.92
1.02 0.5
1.19 0.04
1.36 -0.33
1.53 -0.49
1.7 -0.43
1.87 -0.14
2.04 0.3
2.21 0.75
2.38 1.11
2.55 1.26
2.72 1.15
2.89 0.8
3.06 0.27
3.23 -0.32
3.4 -0.84
3.57 -1.17
3.74 -1.26
3.91 -1.08
4.08 -0.71
4.25 -0.25
4.42 0.17
4.59 0.44
4.76 0.49
4.93 0.3
5.1 -0.08
5.27 -0.54
5.44 -0.96
5.61 -1.22
5.78 -1.24
5.95 -1.0
6.12 -0.54
